top.vcd
$date
	Sun May 11 12:18:21 2025
$end
$version
	Icarus Verilog
$end
$timescale
	1ns
$end
$scope module tb_top $end
$var wire 20 ! sin_out [19:0] $end
$var wire 20 " cos_out [19:0] $end
$var reg 32 # FCW [31:0] $end
$var reg 1 $ clk $end
$var reg 2 % mode [1:0] $end
$var reg 1 & rst $end
$var integer 32 ' outfile [31:0] $end
$scope module uut $end
$var wire 32 ( FCW [31:0] $end
$var wire 1 $ clk $end
$var wire 2 ) mode [1:0] $end
$var wire 1 & rst $end
$var wire 20 * ys [19:0] $end
$var wire 20 + xs [19:0] $end
$var wire 20 , sin_out [19:0] $end
$var wire 9 - phi_rot [8:0] $end
$var wire 3 . phi_r [2:0] $end
$var wire 6 / phi_lut [5:0] $end
$var wire 32 0 phase [31:0] $end
$var wire 64 1 lut_data [63:0] $end
$var wire 3 2 en [2:0] $end
$var wire 20 3 cos_out [19:0] $end
$var wire 4 4 R [3:0] $end
$var wire 1 5 LM $end
$var wire 4 6 L [3:0] $end
$scope module AT_inst $end
$var wire 19 7 ys_shifted [18:0] $end
$var wire 20 8 ys [19:0] $end
$var wire 19 9 xs_shifted [18:0] $end
$var wire 20 : xs [19:0] $end
$var wire 3 ; phi_r [2:0] $end
$var reg 20 < cos_out [19:0] $end
$var reg 20 = sin_out [19:0] $end
$scope function make_signed $end
$var reg 1 > sign $end
$var reg 19 ? val [18:0] $end
$upscope $end
$upscope $end
$scope module CONF_inst $end
$var wire 1 $ clk $end
$var wire 2 @ mode [1:0] $end
$var wire 1 & rst $end
$var reg 4 A L [3:0] $end
$var reg 1 5 LM $end
$var reg 1 B LM_d0 $end
$var reg 1 C LM_d1 $end
$var reg 4 D L_d0 [3:0] $end
$var reg 4 E L_d1 [3:0] $end
$var reg 4 F R [3:0] $end
$var reg 4 G R_d0 [3:0] $end
$var reg 4 H R_d1 [3:0] $end
$var reg 3 I en [2:0] $end
$var reg 3 J en_d0 [2:0] $end
$var reg 3 K en_d1 [2:0] $end
$var reg 4 L new_L [3:0] $end
$var reg 1 M new_LM $end
$var reg 4 N new_R [3:0] $end
$var reg 3 O new_en [2:0] $end
$upscope $end
$scope module LUT_inst $end
$var wire 1 5 LM $end
$var wire 6 P addr_lut1 [5:0] $end
$var wire 64 Q lut_data [63:0] $end
$var wire 6 R phi_lut [5:0] $end
$var wire 4 S addr_lut0 [3:0] $end
$var parameter 32 T l $end
$var parameter 32 U n $end
$var reg 64 V data_out [63:0] $end
$upscope $end
$scope module PA_inst $end
$var wire 32 W FCW [31:0] $end
$var wire 1 $ clk $end
$var wire 1 & rst $end
$var wire 1 X carry $end
$var wire 16 Y FCW_upper [15:0] $end
$var wire 16 Z FCW_lower [15:0] $end
$var reg 32 [ phase [31:0] $end
$var reg 16 \ phase_lower [15:0] $end
$var reg 16 ] phase_upper [15:0] $end
$upscope $end
$scope module PT_inst $end
$var wire 32 ^ PA_out [31:0] $end
$var wire 14 _ phi_s_transformed [13:0] $end
$var wire 14 ` phi_s_raw [13:0] $end
$var wire 8 a phi_rot [7:0] $end
$var wire 3 b phi_r [2:0] $end
$var wire 6 c phi_lut [5:0] $end
$var wire 17 d phi [16:0] $end
$var parameter 32 e l $end
$var parameter 32 f n $end
$upscope $end
$scope module ROT_inst $end
$var wire 1 $ clk $end
$var wire 3 g en [2:0] $end
$var wire 64 h lut_data [63:0] $end
$var wire 9 i phi_rot [8:0] $end
$var wire 1 & rst $end
$var wire 12 j yp [11:0] $end
$var wire 20 k yc [19:0] $end
$var wire 20 l y0_ext [19:0] $end
$var wire 12 m xp [11:0] $end
$var wire 20 n xc [19:0] $end
$var wire 20 o x0_ext [19:0] $end
$var wire 3 p phi2 [2:0] $end
$var wire 3 q phi1 [2:0] $end
$var wire 3 r phi0 [2:0] $end
$var reg 20 s stage1_x [19:0] $end
$var reg 20 t stage1_y [19:0] $end
$var reg 20 u stage2_x [19:0] $end
$var reg 20 v stage2_y [19:0] $end
$var reg 20 w stage3_x [19:0] $end
$var reg 20 x stage3_y [19:0] $end
$var reg 20 y xs [19:0] $end
$var reg 20 z ys [19:0] $end
$upscope $end
$upscope $end
$upscope $end
$enddefinitions $end
$comment Show the parameter values. $end
$dumpall
b10001 f
b110 e
b10010 U
b110 T
$end
#0
$dumpvars
bx z
bx y
bx x
bx w
bx v
bx u
bx t
bx s
bx r
bx q
b0xx p
bx00000000 o
bx n
bx m
bx00000000 l
bx k
bx j
b0xxxxxxxx i
bx h
b0 g
bx d
bx c
bx b
bx a
bx `
bx _
bx ^
b0 ]
b0 \
bx [
b0 Z
b0 Y
0X
b0 W
bx V
bx S
bx R
bx Q
bx P
b0 O
b1001 N
1M
b110 L
b0 K
b0 J
b0 I
b0 H
b0 G
b0 F
b0 E
b0 D
0C
0B
b0 A
b0 @
bx ?
x>
bx =
bx <
bx ;
bx :
bx 9
bx 8
bx 7
b0 6
05
b0 4
bx 3
b0 2
bx 1
bx 0
bx /
bx .
b0xxxxxxxx -
bx ,
bx +
bx *
b0 )
b0 (
b10000000000000000000000000000011 '
1&
b0 %
0$
b0 #
bx "
bx !
$end
#1
b10000000000000000000 n
b0 k
b1100100100000000000 o
b11001001000 m
b0 l
b0 j
b1000000000000000000000000000000000000000011001001000000000000000 1
b1000000000000000000000000000000000000000011001001000000000000000 Q
b1000000000000000000000000000000000000000011001001000000000000000 V
b1000000000000000000000000000000000000000011001001000000000000000 h
b0 S
b0 r
b0 q
b0 p
b0 P
b0 /
b0 R
b0 c
b0 -
b0 i
b0 a
b0 _
b0 ?
0>
b0 .
b0 ;
b0 b
b0 `
b0 "
b0 3
b0 <
b0 !
b0 ,
b0 =
b0 d
b0 7
b0 9
b0 0
b0 [
b0 ^
b0 *
b0 8
b0 z
b0 +
b0 :
b0 y
b0 x
b0 w
b0 v
b0 u
b0 t
b0 s
1$
#2
b111 O
b1000000000000000 Y
0$
b11 %
b11 )
b11 @
b10000000000000000000000000000000 #
b10000000000000000000000000000000 (
b10000000000000000000000000000000 W
0&
#3
b1000000000000000 ]
b1001 G
b110 D
b111 J
1B
b1100100100000000000 s
1$
#4
0$
#5
b10000000000000000000 "
b10000000000000000000 3
b10000000000000000000 <
b10000000000000000000 !
b10000000000000000000 ,
b10000000000000000000 =
1>
b100 .
b100 ;
b100 b
b10000000000000000 d
b1001 H
b110 E
b111 K
1C
b10000000000000000000000000000000 0
b10000000000000000000000000000000 [
b10000000000000000000000000000000 ^
b0 ]
b1100100100000000000 u
1$
#6
0$
#7
b0 "
b0 3
b0 <
b0 !
b0 ,
b0 =
0>
b0 .
b0 ;
b0 b
b0 d
b0 0
b0 [
b0 ^
b1000000000000000 ]
b1001 4
b1001 F
b110 6
b110 A
b111 2
b111 I
b111 g
15
b1100100100000000000 w
1$
#8
0$
#9
b10000000000000000000 !
b10000000000000000000 ,
b10000000000000000000 =
1>
b100 .
b100 ;
b100 b
b10110010010000000000 "
b10110010010000000000 3
b10110010010000000000 <
b110010010000000000 ?
b10000000000000000 d
b110010010000000000 9
b10000000000000000000000000000000 0
b10000000000000000000000000000000 [
b10000000000000000000000000000000 ^
b0 ]
b1100100100000000000 +
b1100100100000000000 :
b1100100100000000000 y
b10000000000000000000 s
1$
#10
0$
#11
b110010010000000000 "
b110010010000000000 3
b110010010000000000 <
b0 !
b0 ,
b0 =
b110010010000000000 ?
0>
b0 .
b0 ;
b0 b
b0 d
b0 0
b0 [
b0 ^
b1000000000000000 ]
b10000000000000000000 u
1$
#12
0$
#13
b10110010010000000000 "
b10110010010000000000 3
b10110010010000000000 <
b10000000000000000000 !
b10000000000000000000 ,
b10000000000000000000 =
b110010010000000000 ?
1>
b100 .
b100 ;
b100 b
b10000000000000000 d
b10000000000000000000000000000000 0
b10000000000000000000000000000000 [
b10000000000000000000000000000000 ^
b0 ]
b10000000000000000000 w
1$
#14
0$
#15
b0 !
b0 ,
b0 =
0>
b0 .
b0 ;
b0 b
b1000000000000000000 "
b1000000000000000000 3
b1000000000000000000 <
b1000000000000000000 ?
b0 d
b1000000000000000000 9
b0 0
b0 [
b0 ^
b1000000000000000 ]
b10000000000000000000 +
b10000000000000000000 :
b10000000000000000000 y
1$
#16
0$
#17
b11000000000000000000 "
b11000000000000000000 3
b11000000000000000000 <
b10000000000000000000 !
b10000000000000000000 ,
b10000000000000000000 =
b1000000000000000000 ?
1>
b100 .
b100 ;
b100 b
b10000000000000000 d
b10000000000000000000000000000000 0
b10000000000000000000000000000000 [
b10000000000000000000000000000000 ^
b0 ]
1$
#18
0$
#19
b1000000000000000000 "
b1000000000000000000 3
b1000000000000000000 <
b0 !
b0 ,
b0 =
b1000000000000000000 ?
0>
b0 .
b0 ;
b0 b
b0 d
b0 0
b0 [
b0 ^
b1000000000000000 ]
1$
#20
0$
#21
b11000000000000000000 "
b11000000000000000000 3
b11000000000000000000 <
b10000000000000000000 !
b10000000000000000000 ,
b10000000000000000000 =
b1000000000000000000 ?
1>
b100 .
b100 ;
b100 b
b10000000000000000 d
b10000000000000000000000000000000 0
b10000000000000000000000000000000 [
b10000000000000000000000000000000 ^
b0 ]
1$
#22
0$
#23
b1000000000000000000 "
b1000000000000000000 3
b1000000000000000000 <
b0 !
b0 ,
b0 =
b1000000000000000000 ?
0>
b0 .
b0 ;
b0 b
b0 d
b0 0
b0 [
b0 ^
b1000000000000000 ]
1$
#24
0$
#25
b11000000000000000000 "
b11000000000000000000 3
b11000000000000000000 <
b10000000000000000000 !
b10000000000000000000 ,
b10000000000000000000 =
b1000000000000000000 ?
1>
b100 .
b100 ;
b100 b
b10000000000000000 d
b10000000000000000000000000000000 0
b10000000000000000000000000000000 [
b10000000000000000000000000000000 ^
b0 ]
1$
#26
0$
#27
b1000000000000000000 "
b1000000000000000000 3
b1000000000000000000 <
b0 !
b0 ,
b0 =
b1000000000000000000 ?
0>
b0 .
b0 ;
b0 b
b0 d
b0 0
b0 [
b0 ^
b1000000000000000 ]
1$
#28
0$
#29
b11000000000000000000 "
b11000000000000000000 3
b11000000000000000000 <
b10000000000000000000 !
b10000000000000000000 ,
b10000000000000000000 =
b1000000000000000000 ?
1>
b100 .
b100 ;
b100 b
b10000000000000000 d
b10000000000000000000000000000000 0
b10000000000000000000000000000000 [
b10000000000000000000000000000000 ^
b0 ]
1$
#30
0$
#31
b1000000000000000000 "
b1000000000000000000 3
b1000000000000000000 <
b0 !
b0 ,
b0 =
b1000000000000000000 ?
0>
b0 .
b0 ;
b0 b
b0 d
b0 0
b0 [
b0 ^
b1000000000000000 ]
1$
#32
0$
#33
b11000000000000000000 "
b11000000000000000000 3
b11000000000000000000 <
b10000000000000000000 !
b10000000000000000000 ,
b10000000000000000000 =
b1000000000000000000 ?
1>
b100 .
b100 ;
b100 b
b10000000000000000 d
b10000000000000000000000000000000 0
b10000000000000000000000000000000 [
b10000000000000000000000000000000 ^
b0 ]
1$
#34
0$
#35
b1000000000000000000 "
b1000000000000000000 3
b1000000000000000000 <
b0 !
b0 ,
b0 =
b1000000000000000000 ?
0>
b0 .
b0 ;
b0 b
b0 d
b0 0
b0 [
b0 ^
b1000000000000000 ]
1$
#36
0$
#37
b11000000000000000000 "
b11000000000000000000 3
b11000000000000000000 <
b10000000000000000000 !
b10000000000000000000 ,
b10000000000000000000 =
b1000000000000000000 ?
1>
b100 .
b100 ;
b100 b
b10000000000000000 d
b10000000000000000000000000000000 0
b10000000000000000000000000000000 [
b10000000000000000000000000000000 ^
b0 ]
1$
#38
0$
#39
b1000000000000000000 "
b1000000000000000000 3
b1000000000000000000 <
b0 !
b0 ,
b0 =
b1000000000000000000 ?
0>
b0 .
b0 ;
b0 b
b0 d
b0 0
b0 [
b0 ^
b1000000000000000 ]
1$
#40
0$
#41
b11000000000000000000 "
b11000000000000000000 3
b11000000000000000000 <
b10000000000000000000 !
b10000000000000000000 ,
b10000000000000000000 =
b1000000000000000000 ?
1>
b100 .
b100 ;
b100 b
b10000000000000000 d
b10000000000000000000000000000000 0
b10000000000000000000000000000000 [
b10000000000000000000000000000000 ^
b0 ]
1$
#42
0$
#43
b1000000000000000000 "
b1000000000000000000 3
b1000000000000000000 <
b0 !
b0 ,
b0 =
b1000000000000000000 ?
0>
b0 .
b0 ;
b0 b
b0 d
b0 0
b0 [
b0 ^
b1000000000000000 ]
1$
#44
0$
#45
b11000000000000000000 "
b11000000000000000000 3
b11000000000000000000 <
b10000000000000000000 !
b10000000000000000000 ,
b10000000000000000000 =
b1000000000000000000 ?
1>
b100 .
b100 ;
b100 b
b10000000000000000 d
b10000000000000000000000000000000 0
b10000000000000000000000000000000 [
b10000000000000000000000000000000 ^
b0 ]
1$
#46
0$
#47
b1000000000000000000 "
b1000000000000000000 3
b1000000000000000000 <
b0 !
b0 ,
b0 =
b1000000000000000000 ?
0>
b0 .
b0 ;
b0 b
b0 d
b0 0
b0 [
b0 ^
b1000000000000000 ]
1$
#48
0$
#49
b11000000000000000000 "
b11000000000000000000 3
b11000000000000000000 <
b10000000000000000000 !
b10000000000000000000 ,
b10000000000000000000 =
b1000000000000000000 ?
1>
b100 .
b100 ;
b100 b
b10000000000000000 d
b10000000000000000000000000000000 0
b10000000000000000000000000000000 [
b10000000000000000000000000000000 ^
b0 ]
1$
#50
0$
#51
b1000000000000000000 "
b1000000000000000000 3
b1000000000000000000 <
b0 !
b0 ,
b0 =
b1000000000000000000 ?
0>
b0 .
b0 ;
b0 b
b0 d
b0 0
b0 [
b0 ^
b1000000000000000 ]
1$
#52
0$
#53
b11000000000000000000 "
b11000000000000000000 3
b11000000000000000000 <
b10000000000000000000 !
b10000000000000000000 ,
b10000000000000000000 =
b1000000000000000000 ?
1>
b100 .
b100 ;
b100 b
b10000000000000000 d
b10000000000000000000000000000000 0
b10000000000000000000000000000000 [
b10000000000000000000000000000000 ^
b0 ]
1$
#54
0$
#55
b1000000000000000000 "
b1000000000000000000 3
b1000000000000000000 <
b0 !
b0 ,
b0 =
b1000000000000000000 ?
0>
b0 .
b0 ;
b0 b
b0 d
b0 0
b0 [
b0 ^
b1000000000000000 ]
1$
#56
0$
#57
b11000000000000000000 "
b11000000000000000000 3
b11000000000000000000 <
b10000000000000000000 !
b10000000000000000000 ,
b10000000000000000000 =
b1000000000000000000 ?
1>
b100 .
b100 ;
b100 b
b10000000000000000 d
b10000000000000000000000000000000 0
b10000000000000000000000000000000 [
b10000000000000000000000000000000 ^
b0 ]
1$
#58
0$
#59
b1000000000000000000 "
b1000000000000000000 3
b1000000000000000000 <
b0 !
b0 ,
b0 =
b1000000000000000000 ?
0>
b0 .
b0 ;
b0 b
b0 d
b0 0
b0 [
b0 ^
b1000000000000000 ]
1$
#60
0$
#61
b11000000000000000000 "
b11000000000000000000 3
b11000000000000000000 <
b10000000000000000000 !
b10000000000000000000 ,
b10000000000000000000 =
b1000000000000000000 ?
1>
b100 .
b100 ;
b100 b
b10000000000000000 d
b10000000000000000000000000000000 0
b10000000000000000000000000000000 [
b10000000000000000000000000000000 ^
b0 ]
1$
#62
0$
#63
b1000000000000000000 "
b1000000000000000000 3
b1000000000000000000 <
b0 !
b0 ,
b0 =
b1000000000000000000 ?
0>
b0 .
b0 ;
b0 b
b0 d
b0 0
b0 [
b0 ^
b1000000000000000 ]
1$
#64
0$
#65
b11000000000000000000 "
b11000000000000000000 3
b11000000000000000000 <
b10000000000000000000 !
b10000000000000000000 ,
b10000000000000000000 =
b1000000000000000000 ?
1>
b100 .
b100 ;
b100 b
b10000000000000000 d
b10000000000000000000000000000000 0
b10000000000000000000000000000000 [
b10000000000000000000000000000000 ^
b0 ]
1$
#66
0$
#67
b1000000000000000000 "
b1000000000000000000 3
b1000000000000000000 <
b0 !
b0 ,
b0 =
b1000000000000000000 ?
0>
b0 .
b0 ;
b0 b
b0 d
b0 0
b0 [
b0 ^
b1000000000000000 ]
1$
#68
0$
#69
b11000000000000000000 "
b11000000000000000000 3
b11000000000000000000 <
b10000000000000000000 !
b10000000000000000000 ,
b10000000000000000000 =
b1000000000000000000 ?
1>
b100 .
b100 ;
b100 b
b10000000000000000 d
b10000000000000000000000000000000 0
b10000000000000000000000000000000 [
b10000000000000000000000000000000 ^
b0 ]
1$
#70
0$
#71
b1000000000000000000 "
b1000000000000000000 3
b1000000000000000000 <
b0 !
b0 ,
b0 =
b1000000000000000000 ?
0>
b0 .
b0 ;
b0 b
b0 d
b0 0
b0 [
b0 ^
b1000000000000000 ]
1$
#72
0$
#73
b11000000000000000000 "
b11000000000000000000 3
b11000000000000000000 <
b10000000000000000000 !
b10000000000000000000 ,
b10000000000000000000 =
b1000000000000000000 ?
1>
b100 .
b100 ;
b100 b
b10000000000000000 d
b10000000000000000000000000000000 0
b10000000000000000000000000000000 [
b10000000000000000000000000000000 ^
b0 ]
1$
#74
0$
#75
b1000000000000000000 "
b1000000000000000000 3
b1000000000000000000 <
b0 !
b0 ,
b0 =
b1000000000000000000 ?
0>
b0 .
b0 ;
b0 b
b0 d
b0 0
b0 [
b0 ^
b1000000000000000 ]
1$
#76
0$
#77
b11000000000000000000 "
b11000000000000000000 3
b11000000000000000000 <
b10000000000000000000 !
b10000000000000000000 ,
b10000000000000000000 =
b1000000000000000000 ?
1>
b100 .
b100 ;
b100 b
b10000000000000000 d
b10000000000000000000000000000000 0
b10000000000000000000000000000000 [
b10000000000000000000000000000000 ^
b0 ]
1$
#78
0$
#79
b1000000000000000000 "
b1000000000000000000 3
b1000000000000000000 <
b0 !
b0 ,
b0 =
b1000000000000000000 ?
0>
b0 .
b0 ;
b0 b
b0 d
b0 0
b0 [
b0 ^
b1000000000000000 ]
1$
#80
0$
#81
b11000000000000000000 "
b11000000000000000000 3
b11000000000000000000 <
b10000000000000000000 !
b10000000000000000000 ,
b10000000000000000000 =
b1000000000000000000 ?
1>
b100 .
b100 ;
b100 b
b10000000000000000 d
b10000000000000000000000000000000 0
b10000000000000000000000000000000 [
b10000000000000000000000000000000 ^
b0 ]
1$
#82
0$
#83
b1000000000000000000 "
b1000000000000000000 3
b1000000000000000000 <
b0 !
b0 ,
b0 =
b1000000000000000000 ?
0>
b0 .
b0 ;
b0 b
b0 d
b0 0
b0 [
b0 ^
b1000000000000000 ]
1$
#84
0$
#85
b11000000000000000000 "
b11000000000000000000 3
b11000000000000000000 <
b10000000000000000000 !
b10000000000000000000 ,
b10000000000000000000 =
b1000000000000000000 ?
1>
b100 .
b100 ;
b100 b
b10000000000000000 d
b10000000000000000000000000000000 0
b10000000000000000000000000000000 [
b10000000000000000000000000000000 ^
b0 ]
1$
#86
0$
#87
b1000000000000000000 "
b1000000000000000000 3
b1000000000000000000 <
b0 !
b0 ,
b0 =
b1000000000000000000 ?
0>
b0 .
b0 ;
b0 b
b0 d
b0 0
b0 [
b0 ^
b1000000000000000 ]
1$
#88
0$
#89
b11000000000000000000 "
b11000000000000000000 3
b11000000000000000000 <
b10000000000000000000 !
b10000000000000000000 ,
b10000000000000000000 =
b1000000000000000000 ?
1>
b100 .
b100 ;
b100 b
b10000000000000000 d
b10000000000000000000000000000000 0
b10000000000000000000000000000000 [
b10000000000000000000000000000000 ^
b0 ]
1$
#90
0$
#91
b1000000000000000000 "
b1000000000000000000 3
b1000000000000000000 <
b0 !
b0 ,
b0 =
b1000000000000000000 ?
0>
b0 .
b0 ;
b0 b
b0 d
b0 0
b0 [
b0 ^
b1000000000000000 ]
1$
#92
0$
#93
b11000000000000000000 "
b11000000000000000000 3
b11000000000000000000 <
b10000000000000000000 !
b10000000000000000000 ,
b10000000000000000000 =
b1000000000000000000 ?
1>
b100 .
b100 ;
b100 b
b10000000000000000 d
b10000000000000000000000000000000 0
b10000000000000000000000000000000 [
b10000000000000000000000000000000 ^
b0 ]
1$
#94
0$
#95
b1000000000000000000 "
b1000000000000000000 3
b1000000000000000000 <
b0 !
b0 ,
b0 =
b1000000000000000000 ?
0>
b0 .
b0 ;
b0 b
b0 d
b0 0
b0 [
b0 ^
b1000000000000000 ]
1$
#96
0$
#97
b11000000000000000000 "
b11000000000000000000 3
b11000000000000000000 <
b10000000000000000000 !
b10000000000000000000 ,
b10000000000000000000 =
b1000000000000000000 ?
1>
b100 .
b100 ;
b100 b
b10000000000000000 d
b10000000000000000000000000000000 0
b10000000000000000000000000000000 [
b10000000000000000000000000000000 ^
b0 ]
1$
#98
0$
#99
b1000000000000000000 "
b1000000000000000000 3
b1000000000000000000 <
b0 !
b0 ,
b0 =
b1000000000000000000 ?
0>
b0 .
b0 ;
b0 b
b0 d
b0 0
b0 [
b0 ^
b1000000000000000 ]
1$
#100
0$
#101
b11000000000000000000 "
b11000000000000000000 3
b11000000000000000000 <
b10000000000000000000 !
b10000000000000000000 ,
b10000000000000000000 =
b1000000000000000000 ?
1>
b100 .
b100 ;
b100 b
b10000000000000000 d
b10000000000000000000000000000000 0
b10000000000000000000000000000000 [
b10000000000000000000000000000000 ^
b0 ]
1$
#102
0$
#103
b1000000000000000000 "
b1000000000000000000 3
b1000000000000000000 <
b0 !
b0 ,
b0 =
b1000000000000000000 ?
0>
b0 .
b0 ;
b0 b
b0 d
b0 0
b0 [
b0 ^
b1000000000000000 ]
1$
#104
0$
#105
b11000000000000000000 "
b11000000000000000000 3
b11000000000000000000 <
b10000000000000000000 !
b10000000000000000000 ,
b10000000000000000000 =
b1000000000000000000 ?
1>
b100 .
b100 ;
b100 b
b10000000000000000 d
b10000000000000000000000000000000 0
b10000000000000000000000000000000 [
b10000000000000000000000000000000 ^
b0 ]
1$
#106
0$
#107
b1000000000000000000 "
b1000000000000000000 3
b1000000000000000000 <
b0 !
b0 ,
b0 =
b1000000000000000000 ?
0>
b0 .
b0 ;
b0 b
b0 d
b0 0
b0 [
b0 ^
b1000000000000000 ]
1$
#108
0$
#109
b11000000000000000000 "
b11000000000000000000 3
b11000000000000000000 <
b10000000000000000000 !
b10000000000000000000 ,
b10000000000000000000 =
b1000000000000000000 ?
1>
b100 .
b100 ;
b100 b
b10000000000000000 d
b10000000000000000000000000000000 0
b10000000000000000000000000000000 [
b10000000000000000000000000000000 ^
b0 ]
1$
#110
0$
#111
b1000000000000000000 "
b1000000000000000000 3
b1000000000000000000 <
b0 !
b0 ,
b0 =
b1000000000000000000 ?
0>
b0 .
b0 ;
b0 b
b0 d
b0 0
b0 [
b0 ^
b1000000000000000 ]
1$
#112
0$
#113
b11000000000000000000 "
b11000000000000000000 3
b11000000000000000000 <
b10000000000000000000 !
b10000000000000000000 ,
b10000000000000000000 =
b1000000000000000000 ?
1>
b100 .
b100 ;
b100 b
b10000000000000000 d
b10000000000000000000000000000000 0
b10000000000000000000000000000000 [
b10000000000000000000000000000000 ^
b0 ]
1$
#114
0$
#115
b1000000000000000000 "
b1000000000000000000 3
b1000000000000000000 <
b0 !
b0 ,
b0 =
b1000000000000000000 ?
0>
b0 .
b0 ;
b0 b
b0 d
b0 0
b0 [
b0 ^
b1000000000000000 ]
1$
#116
0$
#117
b11000000000000000000 "
b11000000000000000000 3
b11000000000000000000 <
b10000000000000000000 !
b10000000000000000000 ,
b10000000000000000000 =
b1000000000000000000 ?
1>
b100 .
b100 ;
b100 b
b10000000000000000 d
b10000000000000000000000000000000 0
b10000000000000000000000000000000 [
b10000000000000000000000000000000 ^
b0 ]
1$
#118
0$
#119
b1000000000000000000 "
b1000000000000000000 3
b1000000000000000000 <
b0 !
b0 ,
b0 =
b1000000000000000000 ?
0>
b0 .
b0 ;
b0 b
b0 d
b0 0
b0 [
b0 ^
b1000000000000000 ]
1$
#120
0$
#121
b11000000000000000000 "
b11000000000000000000 3
b11000000000000000000 <
b10000000000000000000 !
b10000000000000000000 ,
b10000000000000000000 =
b1000000000000000000 ?
1>
b100 .
b100 ;
b100 b
b10000000000000000 d
b10000000000000000000000000000000 0
b10000000000000000000000000000000 [
b10000000000000000000000000000000 ^
b0 ]
1$
#122
0$
#123
b1000000000000000000 "
b1000000000000000000 3
b1000000000000000000 <
b0 !
b0 ,
b0 =
b1000000000000000000 ?
0>
b0 .
b0 ;
b0 b
b0 d
b0 0
b0 [
b0 ^
b1000000000000000 ]
1$
#124
0$
#125
b11000000000000000000 "
b11000000000000000000 3
b11000000000000000000 <
b10000000000000000000 !
b10000000000000000000 ,
b10000000000000000000 =
b1000000000000000000 ?
1>
b100 .
b100 ;
b100 b
b10000000000000000 d
b10000000000000000000000000000000 0
b10000000000000000000000000000000 [
b10000000000000000000000000000000 ^
b0 ]
1$
#126
0$
#127
b1000000000000000000 "
b1000000000000000000 3
b1000000000000000000 <
b0 !
b0 ,
b0 =
b1000000000000000000 ?
0>
b0 .
b0 ;
b0 b
b0 d
b0 0
b0 [
b0 ^
b1000000000000000 ]
1$
#128
0$
#129
b11000000000000000000 "
b11000000000000000000 3
b11000000000000000000 <
b10000000000000000000 !
b10000000000000000000 ,
b10000000000000000000 =
b1000000000000000000 ?
1>
b100 .
b100 ;
b100 b
b10000000000000000 d
b10000000000000000000000000000000 0
b10000000000000000000000000000000 [
b10000000000000000000000000000000 ^
b0 ]
1$
#130
0$
#131
b1000000000000000000 "
b1000000000000000000 3
b1000000000000000000 <
b0 !
b0 ,
b0 =
b1000000000000000000 ?
0>
b0 .
b0 ;
b0 b
b0 d
b0 0
b0 [
b0 ^
b1000000000000000 ]
1$
#132
0$
#133
b11000000000000000000 "
b11000000000000000000 3
b11000000000000000000 <
b10000000000000000000 !
b10000000000000000000 ,
b10000000000000000000 =
b1000000000000000000 ?
1>
b100 .
b100 ;
b100 b
b10000000000000000 d
b10000000000000000000000000000000 0
b10000000000000000000000000000000 [
b10000000000000000000000000000000 ^
b0 ]
1$
#134
0$
#135
b1000000000000000000 "
b1000000000000000000 3
b1000000000000000000 <
b0 !
b0 ,
b0 =
b1000000000000000000 ?
0>
b0 .
b0 ;
b0 b
b0 d
b0 0
b0 [
b0 ^
b1000000000000000 ]
1$
#136
0$
#137
b11000000000000000000 "
b11000000000000000000 3
b11000000000000000000 <
b10000000000000000000 !
b10000000000000000000 ,
b10000000000000000000 =
b1000000000000000000 ?
1>
b100 .
b100 ;
b100 b
b10000000000000000 d
b10000000000000000000000000000000 0
b10000000000000000000000000000000 [
b10000000000000000000000000000000 ^
b0 ]
1$
#138
0$
#139
b1000000000000000000 "
b1000000000000000000 3
b1000000000000000000 <
b0 !
b0 ,
b0 =
b1000000000000000000 ?
0>
b0 .
b0 ;
b0 b
b0 d
b0 0
b0 [
b0 ^
b1000000000000000 ]
1$
#140
0$
#141
b11000000000000000000 "
b11000000000000000000 3
b11000000000000000000 <
b10000000000000000000 !
b10000000000000000000 ,
b10000000000000000000 =
b1000000000000000000 ?
1>
b100 .
b100 ;
b100 b
b10000000000000000 d
b10000000000000000000000000000000 0
b10000000000000000000000000000000 [
b10000000000000000000000000000000 ^
b0 ]
1$
#142
0$
#143
b1000000000000000000 "
b1000000000000000000 3
b1000000000000000000 <
b0 !
b0 ,
b0 =
b1000000000000000000 ?
0>
b0 .
b0 ;
b0 b
b0 d
b0 0
b0 [
b0 ^
b1000000000000000 ]
1$
#144
0$
#145
b11000000000000000000 "
b11000000000000000000 3
b11000000000000000000 <
b10000000000000000000 !
b10000000000000000000 ,
b10000000000000000000 =
b1000000000000000000 ?
1>
b100 .
b100 ;
b100 b
b10000000000000000 d
b10000000000000000000000000000000 0
b10000000000000000000000000000000 [
b10000000000000000000000000000000 ^
b0 ]
1$
#146
0$
#147
b1000000000000000000 "
b1000000000000000000 3
b1000000000000000000 <
b0 !
b0 ,
b0 =
b1000000000000000000 ?
0>
b0 .
b0 ;
b0 b
b0 d
b0 0
b0 [
b0 ^
b1000000000000000 ]
1$
#148
0$
#149
b11000000000000000000 "
b11000000000000000000 3
b11000000000000000000 <
b10000000000000000000 !
b10000000000000000000 ,
b10000000000000000000 =
b1000000000000000000 ?
1>
b100 .
b100 ;
b100 b
b10000000000000000 d
b10000000000000000000000000000000 0
b10000000000000000000000000000000 [
b10000000000000000000000000000000 ^
b0 ]
1$
#150
0$
#151
b1000000000000000000 "
b1000000000000000000 3
b1000000000000000000 <
b0 !
b0 ,
b0 =
b1000000000000000000 ?
0>
b0 .
b0 ;
b0 b
b0 d
b0 0
b0 [
b0 ^
b1000000000000000 ]
1$
#152
0$
#153
b11000000000000000000 "
b11000000000000000000 3
b11000000000000000000 <
b10000000000000000000 !
b10000000000000000000 ,
b10000000000000000000 =
b1000000000000000000 ?
1>
b100 .
b100 ;
b100 b
b10000000000000000 d
b10000000000000000000000000000000 0
b10000000000000000000000000000000 [
b10000000000000000000000000000000 ^
b0 ]
1$
#154
0$
#155
b1000000000000000000 "
b1000000000000000000 3
b1000000000000000000 <
b0 !
b0 ,
b0 =
b1000000000000000000 ?
0>
b0 .
b0 ;
b0 b
b0 d
b0 0
b0 [
b0 ^
b1000000000000000 ]
1$
#156
0$
#157
b11000000000000000000 "
b11000000000000000000 3
b11000000000000000000 <
b10000000000000000000 !
b10000000000000000000 ,
b10000000000000000000 =
b1000000000000000000 ?
1>
b100 .
b100 ;
b100 b
b10000000000000000 d
b10000000000000000000000000000000 0
b10000000000000000000000000000000 [
b10000000000000000000000000000000 ^
b0 ]
1$
#158
0$
#159
b1000000000000000000 "
b1000000000000000000 3
b1000000000000000000 <
b0 !
b0 ,
b0 =
b1000000000000000000 ?
0>
b0 .
b0 ;
b0 b
b0 d
b0 0
b0 [
b0 ^
b1000000000000000 ]
1$
#160
0$
#161
b11000000000000000000 "
b11000000000000000000 3
b11000000000000000000 <
b10000000000000000000 !
b10000000000000000000 ,
b10000000000000000000 =
b1000000000000000000 ?
1>
b100 .
b100 ;
b100 b
b10000000000000000 d
b10000000000000000000000000000000 0
b10000000000000000000000000000000 [
b10000000000000000000000000000000 ^
b0 ]
1$
#162
0$
